tb_RISC_SPM.vcd
$date
	Fri Apr 29 11:52:08 2022
$end
$version
	Icarus Verilog
$end
$timescale
	1ps
$end
$scope module tb_RISC_SPM $end
$var wire 8 ! word0 [7:0] $end
$var wire 8 " word1 [7:0] $end
$var wire 8 # word10 [7:0] $end
$var wire 8 $ word11 [7:0] $end
$var wire 8 % word12 [7:0] $end
$var wire 8 & word128 [7:0] $end
$var wire 8 ' word129 [7:0] $end
$var wire 8 ( word13 [7:0] $end
$var wire 8 ) word130 [7:0] $end
$var wire 8 * word131 [7:0] $end
$var wire 8 + word132 [7:0] $end
$var wire 8 , word133 [7:0] $end
$var wire 8 - word134 [7:0] $end
$var wire 8 . word135 [7:0] $end
$var wire 8 / word136 [7:0] $end
$var wire 8 0 word137 [7:0] $end
$var wire 8 1 word138 [7:0] $end
$var wire 8 2 word14 [7:0] $end
$var wire 8 3 word140 [7:0] $end
$var wire 8 4 word2 [7:0] $end
$var wire 8 5 word255 [7:0] $end
$var wire 8 6 word3 [7:0] $end
$var wire 8 7 word4 [7:0] $end
$var wire 8 8 word5 [7:0] $end
$var wire 8 9 word6 [7:0] $end
$var wire 8 : word7 [7:0] $end
$var wire 8 ; word8 [7:0] $end
$var wire 8 < word9 [7:0] $end
$var wire 1 = memory_bus $end
$var wire 1 > instruction_bus $end
$var wire 1 ? data_bus $end
$var wire 1 @ clk $end
$var wire 1 A address_bus $end
$var reg 9 B k [8:0] $end
$var reg 1 C rst $end
$scope module M1 $end
$var reg 1 @ clock $end
$upscope $end
$scope module M2 $end
$var wire 8 D address_bus [7:0] $end
$var wire 1 @ clk $end
$var wire 8 E data_bus [7:0] $end
$var wire 8 F instruction_bus [7:0] $end
$var wire 8 G memory_bus [7:0] $end
$var wire 1 C rst $end
$var wire 1 H zero $end
$var wire 1 I write $end
$var wire 8 J mem_word [7:0] $end
$var wire 8 K instruction [7:0] $end
$var wire 8 L address [7:0] $end
$var wire 2 M Sel_Bus_2_Mux [1:0] $end
$var wire 3 N Sel_Bus_1_Mux [2:0] $end
$var wire 1 O Load_Reg_Z $end
$var wire 1 P Load_Reg_Y $end
$var wire 1 Q Load_R3 $end
$var wire 1 R Load_R2 $end
$var wire 1 S Load_R1 $end
$var wire 1 T Load_R0 $end
$var wire 1 U Load_PC $end
$var wire 1 V Load_IR $end
$var wire 1 W Load_Add_R $end
$var wire 1 X Inc_PC $end
$var wire 8 Y Bus_1 [7:0] $end
$scope module M0_Processor $end
$var wire 1 @ clk $end
$var wire 1 C rst $end
$var wire 4 Z opcode [3:0] $end
$var wire 8 [ mem_word [7:0] $end
$var wire 8 \ instruction [7:0] $end
$var wire 1 ] alu_zero_flag $end
$var wire 8 ^ alu_out [7:0] $end
$var wire 8 _ address [7:0] $end
$var wire 1 H Zflag $end
$var wire 8 ` Y_value [7:0] $end
$var wire 2 a Sel_Bus_2_Mux [1:0] $end
$var wire 3 b Sel_Bus_1_Mux [2:0] $end
$var wire 8 c R3_out [7:0] $end
$var wire 8 d R2_out [7:0] $end
$var wire 8 e R1_out [7:0] $end
$var wire 8 f R0_out [7:0] $end
$var wire 8 g PC_count [7:0] $end
$var wire 1 O Load_Reg_Z $end
$var wire 1 P Load_Reg_Y $end
$var wire 1 Q Load_R3 $end
$var wire 1 R Load_R2 $end
$var wire 1 S Load_R1 $end
$var wire 1 T Load_R0 $end
$var wire 1 U Load_PC $end
$var wire 1 V Load_IR $end
$var wire 1 W Load_Add_R $end
$var wire 1 X Inc_PC $end
$var wire 8 h Bus_2 [7:0] $end
$var wire 8 i Bus_1 [7:0] $end
$scope module ALU $end
$var wire 4 j sel [3:0] $end
$var wire 8 k data_2 [7:0] $end
$var wire 8 l data_1 [7:0] $end
$var wire 1 ] alu_zero_flag $end
$var reg 8 m alu_out [7:0] $end
$upscope $end
$scope module Add_R $end
$var wire 1 @ clk $end
$var wire 1 C rst $end
$var wire 1 W load $end
$var wire 8 n data_in [7:0] $end
$var reg 8 o data_out [7:0] $end
$upscope $end
$scope module IR $end
$var wire 1 @ clk $end
$var wire 1 C rst $end
$var wire 1 V load $end
$var wire 8 p data_in [7:0] $end
$var reg 8 q data_out [7:0] $end
$upscope $end
$scope module Mux_1 $end
$var wire 3 r sel [2:0] $end
$var wire 8 s mux_out [7:0] $end
$var wire 8 t data_e [7:0] $end
$var wire 8 u data_d [7:0] $end
$var wire 8 v data_c [7:0] $end
$var wire 8 w data_b [7:0] $end
$var wire 8 x data_a [7:0] $end
$upscope $end
$scope module Mux_2 $end
$var wire 8 y data_a [7:0] $end
$var wire 8 z data_b [7:0] $end
$var wire 2 { sel [1:0] $end
$var wire 8 | mux_out [7:0] $end
$var wire 8 } data_c [7:0] $end
$upscope $end
$scope module PC $end
$var wire 1 @ clk $end
$var wire 8 ~ data_in [7:0] $end
$var wire 1 C rst $end
$var wire 1 U Load_PC $end
$var wire 1 X Inc_PC $end
$var reg 8 !" count [7:0] $end
$upscope $end
$scope module R0 $end
$var wire 1 @ clk $end
$var wire 8 "" data_in [7:0] $end
$var wire 1 C rst $end
$var wire 1 T load $end
$var reg 8 #" data_out [7:0] $end
$upscope $end
$scope module R1 $end
$var wire 1 @ clk $end
$var wire 8 $" data_in [7:0] $end
$var wire 1 C rst $end
$var wire 1 S load $end
$var reg 8 %" data_out [7:0] $end
$upscope $end
$scope module R2 $end
$var wire 1 @ clk $end
$var wire 8 &" data_in [7:0] $end
$var wire 1 C rst $end
$var wire 1 R load $end
$var reg 8 '" data_out [7:0] $end
$upscope $end
$scope module R3 $end
$var wire 1 @ clk $end
$var wire 8 (" data_in [7:0] $end
$var wire 1 C rst $end
$var wire 1 Q load $end
$var reg 8 )" data_out [7:0] $end
$upscope $end
$scope module Reg_Y $end
$var wire 1 @ clk $end
$var wire 8 *" data_in [7:0] $end
$var wire 1 C rst $end
$var wire 1 P load $end
$var reg 8 +" data_out [7:0] $end
$upscope $end
$scope module Reg_Z $end
$var wire 1 @ clk $end
$var wire 1 ] data_in $end
$var wire 1 C rst $end
$var wire 1 O load $end
$var reg 1 H data_out $end
$upscope $end
$upscope $end
$scope module M1_Controller $end
$var wire 1 @ clk $end
$var wire 8 ," instruction [7:0] $end
$var wire 1 C rst $end
$var wire 1 H zero $end
$var wire 2 -" src [1:0] $end
$var wire 4 ." opcode [3:0] $end
$var wire 2 /" dest [1:0] $end
$var wire 2 0" Sel_Bus_2_Mux [1:0] $end
$var wire 3 1" Sel_Bus_1_Mux [2:0] $end
$var reg 1 X Inc_PC $end
$var reg 1 W Load_Add_R $end
$var reg 1 V Load_IR $end
$var reg 1 U Load_PC $end
$var reg 1 T Load_R0 $end
$var reg 1 S Load_R1 $end
$var reg 1 R Load_R2 $end
$var reg 1 Q Load_R3 $end
$var reg 1 P Load_Reg_Y $end
$var reg 1 O Load_Reg_Z $end
$var reg 1 2" Sel_ALU $end
$var reg 1 3" Sel_Bus_1 $end
$var reg 1 4" Sel_Mem $end
$var reg 1 5" Sel_PC $end
$var reg 1 6" Sel_R0 $end
$var reg 1 7" Sel_R1 $end
$var reg 1 8" Sel_R2 $end
$var reg 1 9" Sel_R3 $end
$var reg 1 :" err_flag $end
$var reg 4 ;" next_state [3:0] $end
$var reg 4 <" state [3:0] $end
$var reg 1 I write $end
$scope begin Output_and_next_state $end
$upscope $end
$scope begin State_transistions $end
$upscope $end
$upscope $end
$scope module M2_MEM $end
$var wire 8 =" address [7:0] $end
$var wire 1 @ clk $end
$var wire 8 >" data_in [7:0] $end
$var wire 8 ?" data_out [7:0] $end
$var wire 1 I write $end
$upscope $end
$upscope $end
$scope begin Flush_Memory $end
$upscope $end
$scope begin Load_program $end
$upscope $end
$upscope $end
$enddefinitions $end
#0
$dumpvars
bx ?"
bx >"
bx ="
bx <"
bx ;"
x:"
x9"
x8"
x7"
x6"
x5"
x4"
x3"
x2"
bx 1"
bx 0"
bx /"
bx ."
bx -"
bx ,"
bx +"
bx *"
bx )"
bx ("
bx '"
bx &"
bx %"
bx $"
bx #"
bx ""
bx !"
bx ~
bx }
bx |
bx {
bx z
bx y
bx x
bx w
bx v
bx u
bx t
bx s
bx r
bx q
bx p
bx o
bx n
bx m
bx l
bx k
bx j
bx i
bx h
bx g
bx f
bx e
bx d
bx c
bx b
bx a
bx `
bx _
bx ^
x]
bx \
bx [
bx Z
bx Y
xX
xW
xV
xU
xT
xS
xR
xQ
xP
xO
bx N
bx M
bx L
bx K
bx J
xI
xH
bx G
bx F
bx E
bx D
xC
bx B
xA
0@
x?
x>
x=
bx <
bx ;
bx :
bx 9
bx 8
bx 7
bx 6
bx 5
bx 4
bx 3
bx 2
bx 1
bx 0
bx /
bx .
bx -
bx ,
bx +
bx *
bx )
bx (
bx '
bx &
bx %
bx $
bx #
bx "
bx !
$end
#2000
1]
b0 ^
b0 m
b0 y
b1 ;"
0:"
0I
04"
02"
03"
0X
0O
0P
0W
0V
0U
0Q
0R
0S
0T
05"
09"
08"
07"
06"
0=
0A
b0 ."
b0 -"
b0 /"
b0 Z
b0 j
0>
b0 <"
b0 f
b0 x
b0 #"
b0 e
b0 w
b0 %"
b0 d
b0 v
b0 '"
b0 c
b0 u
b0 )"
b0 `
b0 l
b0 +"
0H
b0 G
b0 J
b0 [
b0 }
b0 ?"
b0 D
b0 L
b0 _
b0 o
b0 ="
b0 F
b0 K
b0 \
b0 q
b0 ,"
b0 g
b0 t
b0 !"
b0 5
b0 3
b0 1
b0 0
b0 /
b0 .
b0 -
b0 ,
b0 +
b0 *
b0 )
b0 '
b0 &
b0 2
b0 (
b0 %
b0 $
b0 #
b0 <
b0 ;
b0 :
b0 9
b0 8
b0 7
b0 6
b0 4
b0 "
b0 !
b100000000 B
0C
#5000
1=
b1001 3
b10 )
b1 '
b110 &
b10110 4
b10000010 "
b1010001 G
b1010001 J
b1010001 [
b1010001 }
b1010001 ?"
b1010001 !
#10000
1@
#12000
1C
#20000
0@
#30000
b0 h
b0 n
b0 p
b0 |
b0 ~
b0 ""
b0 $"
b0 &"
b0 ("
b0 *"
0?
b0 E
b0 Y
b0 i
b0 k
b0 s
b0 z
b0 >"
b100 N
b100 b
b100 r
b100 1"
b1 M
b1 a
b1 {
b1 0"
1W
13"
15"
b10 ;"
b1 <"
1@
#40000
0@
#50000
x?
bx E
bx Y
bx i
bx k
bx s
bx z
bx >"
bx N
bx b
bx r
bx 1"
b1010001 h
b1010001 n
b1010001 p
b1010001 |
b1010001 ~
b1010001 ""
b1010001 $"
b1010001 &"
b1010001 ("
b1010001 *"
b10 M
b10 a
b10 {
b10 0"
1X
1V
14"
b11 ;"
03"
0W
05"
b10 <"
1@
#60000
0@
#70000
1?
b1 E
b1 Y
b1 i
b1 k
b1 s
b1 z
b1 >"
b100 N
b100 b
b100 r
b100 1"
b1 h
b1 n
b1 p
b1 |
b1 ~
b1 ""
b1 $"
b1 &"
b1 ("
b1 *"
b1 M
b1 a
b1 {
b1 0"
1W
13"
15"
b101 ;"
04"
0X
0V
b101 ."
b1 /"
b101 Z
b101 j
1>
b11 <"
b1010001 F
b1010001 K
b1010001 \
b1010001 q
b1010001 ,"
b1 g
b1 t
b1 !"
1@
#80000
0@
#90000
x?
bx E
bx Y
bx i
bx k
bx s
bx z
bx >"
bx N
bx b
bx r
bx 1"
b10000010 h
b10000010 n
b10000010 p
b10000010 |
b10000010 ~
b10000010 ""
b10000010 $"
b10000010 &"
b10000010 ("
b10000010 *"
b10 M
b10 a
b10 {
b10 0"
1X
14"
b110 ;"
03"
1W
05"
0=
1A
b101 <"
b10000010 G
b10000010 J
b10000010 [
b10000010 }
b10000010 ?"
b1 D
b1 L
b1 _
b1 o
b1 ="
1@
#100000
0@
#110000
b10 h
b10 n
b10 p
b10 |
b10 ~
b10 ""
b10 $"
b10 &"
b10 ("
b10 *"
1S
b1 ;"
14"
0X
0W
0A
b110 <"
b10 G
b10 J
b10 [
b10 }
b10 ?"
b10000010 D
b10000010 L
b10000010 _
b10000010 o
b10000010 ="
b10 g
b10 t
b10 !"
1@
#120000
0@
#130000
0?
b10 E
b10 Y
b10 i
b10 k
b10 s
b10 z
b10 >"
b100 N
b100 b
b100 r
b100 1"
b10 h
b10 n
b10 p
b10 |
b10 ~
b10 ""
b10 $"
b10 &"
b10 ("
b10 *"
b1 M
b1 a
b1 {
b1 0"
1W
13"
15"
b10 ;"
04"
0S
b1 <"
b10 e
b10 w
b10 %"
1@
#140000
0@
#150000
x?
bx E
bx Y
bx i
bx k
bx s
bx z
bx >"
bx N
bx b
bx r
bx 1"
b10110 h
b10110 n
b10110 p
b10110 |
b10110 ~
b10110 ""
b10110 $"
b10110 &"
b10110 ("
b10110 *"
b10 M
b10 a
b10 {
b10 0"
1X
1V
14"
b11 ;"
03"
0W
05"
b10 <"
b10110 G
b10110 J
b10110 [
b10110 }
b10110 ?"
b10 D
b10 L
b10 _
b10 o
b10 ="
1@
#160000
0@
#170000
0?
b10 E
b10 Y
b10 i
b10 k
b10 s
b10 z
b10 >"
b10 h
b10 n
b10 p
b10 |
b10 ~
b10 ""
b10 $"
b10 &"
b10 ("
b10 *"
b1 N
b1 b
b1 r
b1 1"
b1 M
b1 a
b1 {
b1 0"
0]
b10 ^
b10 m
b10 y
17"
1P
13"
b100 ;"
04"
0X
0V
b1 ."
b1 -"
b10 /"
b1 Z
b1 j
0>
b11 <"
b11 g
b11 t
b11 !"
b10110 F
b10110 K
b10110 \
b10110 q
b10110 ,"
1@
#180000
0@
#190000
0?
0]
b0 E
b0 Y
b0 i
b0 k
b0 s
b0 z
b0 >"
b10 h
b10 n
b10 p
b10 |
b10 ~
b10 ""
b10 $"
b10 &"
b10 ("
b10 *"
b10 N
b10 b
b10 r
b10 1"
b0 M
b0 a
b0 {
b0 0"
1R
18"
12"
1O
b1 ;"
03"
0P
07"
b10 ^
b10 m
b10 y
b100 <"
b10 `
b10 l
b10 +"
1@
#200000
0@
#210000
1?
0]
b100 N
b100 b
b100 r
b100 1"
b11 h
b11 n
b11 p
b11 |
b11 ~
b11 ""
b11 $"
b11 &"
b11 ("
b11 *"
b101 ^
b101 m
b101 y
b1 M
b1 a
b1 {
b1 0"
b11 E
b11 Y
b11 i
b11 k
b11 s
b11 z
b11 >"
1W
13"
15"
b10 ;"
02"
0O
0R
08"
b1 <"
b10 d
b10 v
b10 '"
1@
#220000
0@
#230000
x?
x]
bx ^
bx m
bx y
bx E
bx Y
bx i
bx k
bx s
bx z
bx >"
bx N
bx b
bx r
bx 1"
b0 h
b0 n
b0 p
b0 |
b0 ~
b0 ""
b0 $"
b0 &"
b0 ("
b0 *"
b10 M
b10 a
b10 {
b10 0"
1X
1V
14"
b11 ;"
03"
0W
05"
1A
b10 <"
b0 G
b0 J
b0 [
b0 }
b0 ?"
b11 D
b11 L
b11 _
b11 o
b11 ="
1@
#240000
0@
#250000
bx h
bx n
bx p
bx |
bx ~
bx ""
bx $"
bx &"
bx ("
bx *"
bx M
bx a
bx {
bx 0"
1]
b0 ^
b0 m
b0 y
b1 ;"
04"
0X
0V
b0 ."
b0 -"
b0 /"
b0 Z
b0 j
b11 <"
b100 g
b100 t
b100 !"
b0 F
b0 K
b0 \
b0 q
b0 ,"
1@
#260000
0@
#270000
b100 h
b100 n
b100 p
b100 |
b100 ~
b100 ""
b100 $"
b100 &"
b100 ("
b100 *"
0?
b100 E
b100 Y
b100 i
b100 k
b100 s
b100 z
b100 >"
b100 N
b100 b
b100 r
b100 1"
b1 M
b1 a
b1 {
b1 0"
1W
13"
15"
b10 ;"
b1 <"
1@
#280000
0@
#290000
x?
bx E
bx Y
bx i
bx k
bx s
bx z
bx >"
bx N
bx b
bx r
bx 1"
b0 h
b0 n
b0 p
b0 |
b0 ~
b0 ""
b0 $"
b0 &"
b0 ("
b0 *"
b10 M
b10 a
b10 {
b10 0"
1X
1V
14"
b11 ;"
03"
0W
05"
0A
b10 <"
b100 D
b100 L
b100 _
b100 o
b100 ="
1@
#300000
0@
#310000
bx h
bx n
bx p
bx |
bx ~
bx ""
bx $"
bx &"
bx ("
bx *"
bx M
bx a
bx {
bx 0"
b1 ;"
04"
0X
0V
b11 <"
b101 g
b101 t
b101 !"
1@
#320000
0@
#330000
b101 h
b101 n
b101 p
b101 |
b101 ~
b101 ""
b101 $"
b101 &"
b101 ("
b101 *"
1?
b101 E
b101 Y
b101 i
b101 k
b101 s
b101 z
b101 >"
b100 N
b100 b
b100 r
b100 1"
b1 M
b1 a
b1 {
b1 0"
1W
13"
15"
b10 ;"
b1 <"
1@
#340000
0@
#350000
x?
bx E
bx Y
bx i
bx k
bx s
bx z
bx >"
bx N
bx b
bx r
bx 1"
b0 h
b0 n
b0 p
b0 |
b0 ~
b0 ""
b0 $"
b0 &"
b0 ("
b0 *"
b10 M
b10 a
b10 {
b10 0"
1X
1V
14"
b11 ;"
03"
0W
05"
1A
b10 <"
b101 D
b101 L
b101 _
b101 o
b101 ="
1@
#360000
0@
#370000
bx h
bx n
bx p
bx |
bx ~
bx ""
bx $"
bx &"
bx ("
bx *"
bx M
bx a
bx {
bx 0"
b1 ;"
04"
0X
0V
b11 <"
b110 g
b110 t
b110 !"
1@
#380000
0@
#390000
b110 h
b110 n
b110 p
b110 |
b110 ~
b110 ""
b110 $"
b110 &"
b110 ("
b110 *"
0?
b110 E
b110 Y
b110 i
b110 k
b110 s
b110 z
b110 >"
b100 N
b100 b
b100 r
b100 1"
b1 M
b1 a
b1 {
b1 0"
1W
13"
15"
b10 ;"
b1 <"
1@
#400000
0@
#410000
x?
bx E
bx Y
bx i
bx k
bx s
bx z
bx >"
bx N
bx b
bx r
bx 1"
b0 h
b0 n
b0 p
b0 |
b0 ~
b0 ""
b0 $"
b0 &"
b0 ("
b0 *"
b10 M
b10 a
b10 {
b10 0"
1X
1V
14"
b11 ;"
03"
0W
05"
0A
b10 <"
b110 D
b110 L
b110 _
b110 o
b110 ="
1@
#420000
0@
#430000
bx h
bx n
bx p
bx |
bx ~
bx ""
bx $"
bx &"
bx ("
bx *"
bx M
bx a
bx {
bx 0"
b1 ;"
04"
0X
0V
b11 <"
b111 g
b111 t
b111 !"
1@
#440000
0@
#450000
b111 h
b111 n
b111 p
b111 |
b111 ~
b111 ""
b111 $"
b111 &"
b111 ("
b111 *"
1?
b111 E
b111 Y
b111 i
b111 k
b111 s
b111 z
b111 >"
b100 N
b100 b
b100 r
b100 1"
b1 M
b1 a
b1 {
b1 0"
1W
13"
15"
b10 ;"
b1 <"
1@
#460000
0@
#470000
x?
bx E
bx Y
bx i
bx k
bx s
bx z
bx >"
bx N
bx b
bx r
bx 1"
b0 h
b0 n
b0 p
b0 |
b0 ~
b0 ""
b0 $"
b0 &"
b0 ("
b0 *"
b10 M
b10 a
b10 {
b10 0"
1X
1V
14"
b11 ;"
03"
0W
05"
1A
b10 <"
b111 D
b111 L
b111 _
b111 o
b111 ="
1@
#480000
0@
#490000
bx h
bx n
bx p
bx |
bx ~
bx ""
bx $"
bx &"
bx ("
bx *"
bx M
bx a
bx {
bx 0"
b1 ;"
04"
0X
0V
b11 <"
b1000 g
b1000 t
b1000 !"
1@
#500000
0@
#510000
b1000 h
b1000 n
b1000 p
b1000 |
b1000 ~
b1000 ""
b1000 $"
b1000 &"
b1000 ("
b1000 *"
0?
b1000 E
b1000 Y
b1000 i
b1000 k
b1000 s
b1000 z
b1000 >"
b100 N
b100 b
b100 r
b100 1"
b1 M
b1 a
b1 {
b1 0"
1W
13"
15"
b10 ;"
b1 <"
1@
#520000
0@
#530000
x?
bx E
bx Y
bx i
bx k
bx s
bx z
bx >"
bx N
bx b
bx r
bx 1"
b0 h
b0 n
b0 p
b0 |
b0 ~
b0 ""
b0 $"
b0 &"
b0 ("
b0 *"
b10 M
b10 a
b10 {
b10 0"
1X
1V
14"
b11 ;"
03"
0W
05"
0A
b10 <"
b1000 D
b1000 L
b1000 _
b1000 o
b1000 ="
1@
#540000
0@
#550000
bx h
bx n
bx p
bx |
bx ~
bx ""
bx $"
bx &"
bx ("
bx *"
bx M
bx a
bx {
bx 0"
b1 ;"
04"
0X
0V
b11 <"
b1001 g
b1001 t
b1001 !"
1@
#560000
0@
#570000
b1001 h
b1001 n
b1001 p
b1001 |
b1001 ~
b1001 ""
b1001 $"
b1001 &"
b1001 ("
b1001 *"
1?
b1001 E
b1001 Y
b1001 i
b1001 k
b1001 s
b1001 z
b1001 >"
b100 N
b100 b
b100 r
b100 1"
b1 M
b1 a
b1 {
b1 0"
1W
13"
15"
b10 ;"
b1 <"
1@
#580000
0@
#590000
x?
bx E
bx Y
bx i
bx k
bx s
bx z
bx >"
bx N
bx b
bx r
bx 1"
b0 h
b0 n
b0 p
b0 |
b0 ~
b0 ""
b0 $"
b0 &"
b0 ("
b0 *"
b10 M
b10 a
b10 {
b10 0"
1X
1V
14"
b11 ;"
03"
0W
05"
1A
b10 <"
b1001 D
b1001 L
b1001 _
b1001 o
b1001 ="
1@
#600000
0@
#610000
bx h
bx n
bx p
bx |
bx ~
bx ""
bx $"
bx &"
bx ("
bx *"
bx M
bx a
bx {
bx 0"
b1 ;"
04"
0X
0V
b11 <"
b1010 g
b1010 t
b1010 !"
1@
#620000
0@
#630000
b1010 h
b1010 n
b1010 p
b1010 |
b1010 ~
b1010 ""
b1010 $"
b1010 &"
b1010 ("
b1010 *"
0?
b1010 E
b1010 Y
b1010 i
b1010 k
b1010 s
b1010 z
b1010 >"
b100 N
b100 b
b100 r
b100 1"
b1 M
b1 a
b1 {
b1 0"
1W
13"
15"
b10 ;"
b1 <"
1@
#640000
0@
#650000
x?
bx E
bx Y
bx i
bx k
bx s
bx z
bx >"
bx N
bx b
bx r
bx 1"
b0 h
b0 n
b0 p
b0 |
b0 ~
b0 ""
b0 $"
b0 &"
b0 ("
b0 *"
b10 M
b10 a
b10 {
b10 0"
1X
1V
14"
b11 ;"
03"
0W
05"
0A
b10 <"
b1010 D
b1010 L
b1010 _
b1010 o
b1010 ="
1@
#660000
0@
#670000
bx h
bx n
bx p
bx |
bx ~
bx ""
bx $"
bx &"
bx ("
bx *"
bx M
bx a
bx {
bx 0"
b1 ;"
04"
0X
0V
b11 <"
b1011 g
b1011 t
b1011 !"
1@
#680000
0@
#690000
b1011 h
b1011 n
b1011 p
b1011 |
b1011 ~
b1011 ""
b1011 $"
b1011 &"
b1011 ("
b1011 *"
1?
b1011 E
b1011 Y
b1011 i
b1011 k
b1011 s
b1011 z
b1011 >"
b100 N
b100 b
b100 r
b100 1"
b1 M
b1 a
b1 {
b1 0"
1W
13"
15"
b10 ;"
b1 <"
1@
#700000
0@
#710000
x?
bx E
bx Y
bx i
bx k
bx s
bx z
bx >"
bx N
bx b
bx r
bx 1"
b0 h
b0 n
b0 p
b0 |
b0 ~
b0 ""
b0 $"
b0 &"
b0 ("
b0 *"
b10 M
b10 a
b10 {
b10 0"
1X
1V
14"
b11 ;"
03"
0W
05"
1A
b10 <"
b1011 D
b1011 L
b1011 _
b1011 o
b1011 ="
1@
#720000
0@
#730000
bx h
bx n
bx p
bx |
bx ~
bx ""
bx $"
bx &"
bx ("
bx *"
bx M
bx a
bx {
bx 0"
b1 ;"
04"
0X
0V
b11 <"
b1100 g
b1100 t
b1100 !"
1@
#740000
0@
#750000
b1100 h
b1100 n
b1100 p
b1100 |
b1100 ~
b1100 ""
b1100 $"
b1100 &"
b1100 ("
b1100 *"
0?
b1100 E
b1100 Y
b1100 i
b1100 k
b1100 s
b1100 z
b1100 >"
b100 N
b100 b
b100 r
b100 1"
b1 M
b1 a
b1 {
b1 0"
1W
13"
15"
b10 ;"
b1 <"
1@
#760000
0@
#770000
x?
bx E
bx Y
bx i
bx k
bx s
bx z
bx >"
bx N
bx b
bx r
bx 1"
b0 h
b0 n
b0 p
b0 |
b0 ~
b0 ""
b0 $"
b0 &"
b0 ("
b0 *"
b10 M
b10 a
b10 {
b10 0"
1X
1V
14"
b11 ;"
03"
0W
05"
0A
b10 <"
b1100 D
b1100 L
b1100 _
b1100 o
b1100 ="
1@
#780000
0@
#790000
bx h
bx n
bx p
bx |
bx ~
bx ""
bx $"
bx &"
bx ("
bx *"
bx M
bx a
bx {
bx 0"
b1 ;"
04"
0X
0V
b11 <"
b1101 g
b1101 t
b1101 !"
1@
#800000
0@
#810000
b1101 h
b1101 n
b1101 p
b1101 |
b1101 ~
b1101 ""
b1101 $"
b1101 &"
b1101 ("
b1101 *"
1?
b1101 E
b1101 Y
b1101 i
b1101 k
b1101 s
b1101 z
b1101 >"
b100 N
b100 b
b100 r
b100 1"
b1 M
b1 a
b1 {
b1 0"
1W
13"
15"
b10 ;"
b1 <"
1@
#820000
0@
#830000
x?
bx E
bx Y
bx i
bx k
bx s
bx z
bx >"
bx N
bx b
bx r
bx 1"
b0 h
b0 n
b0 p
b0 |
b0 ~
b0 ""
b0 $"
b0 &"
b0 ("
b0 *"
b10 M
b10 a
b10 {
b10 0"
1X
1V
14"
b11 ;"
03"
0W
05"
1A
b10 <"
b1101 D
b1101 L
b1101 _
b1101 o
b1101 ="
1@
#840000
0@
#850000
bx h
bx n
bx p
bx |
bx ~
bx ""
bx $"
bx &"
bx ("
bx *"
bx M
bx a
bx {
bx 0"
b1 ;"
04"
0X
0V
b11 <"
b1110 g
b1110 t
b1110 !"
1@
#860000
0@
#870000
b1110 h
b1110 n
b1110 p
b1110 |
b1110 ~
b1110 ""
b1110 $"
b1110 &"
b1110 ("
b1110 *"
0?
b1110 E
b1110 Y
b1110 i
b1110 k
b1110 s
b1110 z
b1110 >"
b100 N
b100 b
b100 r
b100 1"
b1 M
b1 a
b1 {
b1 0"
1W
13"
15"
b10 ;"
b1 <"
1@
#880000
0@
#890000
x?
bx E
bx Y
bx i
bx k
bx s
bx z
bx >"
bx N
bx b
bx r
bx 1"
b0 h
b0 n
b0 p
b0 |
b0 ~
b0 ""
b0 $"
b0 &"
b0 ("
b0 *"
b10 M
b10 a
b10 {
b10 0"
1X
1V
14"
b11 ;"
03"
0W
05"
0A
b10 <"
b1110 D
b1110 L
b1110 _
b1110 o
b1110 ="
1@
#900000
0@
#910000
bx h
bx n
bx p
bx |
bx ~
bx ""
bx $"
bx &"
bx ("
bx *"
bx M
bx a
bx {
bx 0"
b1 ;"
04"
0X
0V
b11 <"
b1111 g
b1111 t
b1111 !"
1@
#920000
0@
#930000
b1111 h
b1111 n
b1111 p
b1111 |
b1111 ~
b1111 ""
b1111 $"
b1111 &"
b1111 ("
b1111 *"
1?
b1111 E
b1111 Y
b1111 i
b1111 k
b1111 s
b1111 z
b1111 >"
b100 N
b100 b
b100 r
b100 1"
b1 M
b1 a
b1 {
b1 0"
1W
13"
15"
b10 ;"
b1 <"
1@
#940000
0@
#950000
x?
bx E
bx Y
bx i
bx k
bx s
bx z
bx >"
bx N
bx b
bx r
bx 1"
b0 h
b0 n
b0 p
b0 |
b0 ~
b0 ""
b0 $"
b0 &"
b0 ("
b0 *"
b10 M
b10 a
b10 {
b10 0"
1X
1V
14"
b11 ;"
03"
0W
05"
1A
b10 <"
b1111 D
b1111 L
b1111 _
b1111 o
b1111 ="
1@
#960000
0@
#970000
bx h
bx n
bx p
bx |
bx ~
bx ""
bx $"
bx &"
bx ("
bx *"
bx M
bx a
bx {
bx 0"
b1 ;"
04"
0X
0V
b11 <"
b10000 g
b10000 t
b10000 !"
1@
#980000
0@
#990000
b10000 h
b10000 n
b10000 p
b10000 |
b10000 ~
b10000 ""
b10000 $"
b10000 &"
b10000 ("
b10000 *"
0?
b10000 E
b10000 Y
b10000 i
b10000 k
b10000 s
b10000 z
b10000 >"
b100 N
b100 b
b100 r
b100 1"
b1 M
b1 a
b1 {
b1 0"
1W
13"
15"
b10 ;"
b1 <"
1@
#1000000
0@
#1010000
x?
bx E
bx Y
bx i
bx k
bx s
bx z
bx >"
bx N
bx b
bx r
bx 1"
b0 h
b0 n
b0 p
b0 |
b0 ~
b0 ""
b0 $"
b0 &"
b0 ("
b0 *"
b10 M
b10 a
b10 {
b10 0"
1X
1V
14"
b11 ;"
03"
0W
05"
0A
b10 <"
b10000 D
b10000 L
b10000 _
b10000 o
b10000 ="
1@
#1020000
0@
#1030000
bx h
bx n
bx p
bx |
bx ~
bx ""
bx $"
bx &"
bx ("
bx *"
bx M
bx a
bx {
bx 0"
b1 ;"
04"
0X
0V
b11 <"
b10001 g
b10001 t
b10001 !"
1@
#1040000
0@
#1050000
b10001 h
b10001 n
b10001 p
b10001 |
b10001 ~
b10001 ""
b10001 $"
b10001 &"
b10001 ("
b10001 *"
1?
b10001 E
b10001 Y
b10001 i
b10001 k
b10001 s
b10001 z
b10001 >"
b100 N
b100 b
b100 r
b100 1"
b1 M
b1 a
b1 {
b1 0"
1W
13"
15"
b10 ;"
b1 <"
1@
#1060000
0@
#1070000
x?
bx E
bx Y
bx i
bx k
bx s
bx z
bx >"
bx N
bx b
bx r
bx 1"
b0 h
b0 n
b0 p
b0 |
b0 ~
b0 ""
b0 $"
b0 &"
b0 ("
b0 *"
b10 M
b10 a
b10 {
b10 0"
1X
1V
14"
b11 ;"
03"
0W
05"
1A
b10 <"
b10001 D
b10001 L
b10001 _
b10001 o
b10001 ="
1@
#1080000
0@
#1090000
bx h
bx n
bx p
bx |
bx ~
bx ""
bx $"
bx &"
bx ("
bx *"
bx M
bx a
bx {
bx 0"
b1 ;"
04"
0X
0V
b11 <"
b10010 g
b10010 t
b10010 !"
1@
#1100000
0@
#1110000
b10010 h
b10010 n
b10010 p
b10010 |
b10010 ~
b10010 ""
b10010 $"
b10010 &"
b10010 ("
b10010 *"
0?
b10010 E
b10010 Y
b10010 i
b10010 k
b10010 s
b10010 z
b10010 >"
b100 N
b100 b
b100 r
b100 1"
b1 M
b1 a
b1 {
b1 0"
1W
13"
15"
b10 ;"
b1 <"
1@
#1120000
0@
